{
    "namejson": "test.json",
    "themeName": "dark",
    "settings": {
        "nodeInterface": true,
        "freezeNodes": false,
        "nodeFontOpacity": 0.3,
        "showGrid": true,
        "gridStep": 10,
        "showMap": true
    },
    "canvasSettings": {
        "scale": 1.6000000000000005,
        "offsetX": 0,
        "offsetY": 0,
        "maxh": 1877,
        "maxw": 2752
    },
    "nodes": [
        {
            "group": "Math",
            "observers": [
                "Sin()",
                "Cos()"
            ],
            "visType": 3,
            "position": {
                "x": 20,
                "y": 20
            },
            "geometry": {
                "width": 790,
                "height": 390
            },
            "canvasPattern": {
                "label": [
                    "Sin()",
                    "Cos()"
                ]
            }
        },
        {
            "group": "Math",
            "observers": [
                "Sin()",
                "Cos()"
            ],
            "visType": 0,
            "position": {
                "x": 820,
                "y": 20
            },
            "geometry": {
                "width": 190,
                "height": 390
            },
            "canvasPattern": {
                "direction": "y"
            }
        },
        {
            "group": "Math",
            "observers": [
                "Sin()",
                "Cos()"
            ],
            "visType": 7,
            "position": {
                "x": 1020,
                "y": 20
            },
            "geometry": {
                "width": 220,
                "height": 390
            },
            "canvasPattern": {
                "direction": "y"
            }
        },
        {
            "group": "Math",
            "observers": [
                "Tg()"
            ],
            "visType": 3,
            "position": {
                "x": 20,
                "y": 440
            },
            "geometry": {
                "width": 330,
                "height": 420
            },
            "canvasPattern": {
                "label": [
                    "Tg()"
                ]
            }
        },
        {
            "group": "Math",
            "observers": [
                "Tg()"
            ],
            "visType": 0,
            "position": {
                "x": 360,
                "y": 439.40000000000003
            },
            "geometry": {
                "width": 330,
                "height": 70
            },
            "canvasPattern": {
                "direction": "y"
            }
        },
        {
            "group": "Math",
            "observers": [
                "Tg()"
            ],
            "visType": 7,
            "position": {
                "x": 360,
                "y": 519.4000000000001
            },
            "geometry": {
                "width": 330,
                "height": 340
            },
            "canvasPattern": {
                "direction": "y"
            }
        },
        {
            "group": "Math",
            "observers": [
                "Rect"
            ],
            "visType": 3,
            "position": {
                "x": 720,
                "y": 440
            },
            "geometry": {
                "width": 370,
                "height": 420
            },
            "canvasPattern": {
                "label": [
                    "Rect"
                ]
            }
        },
        {
            "group": "Math",
            "observers": [
                "Rect"
            ],
            "visType": 0,
            "position": {
                "x": 1100,
                "y": 440
            },
            "geometry": {
                "width": 450,
                "height": 70
            },
            "canvasPattern": {
                "direction": "y"
            }
        },
        {
            "group": "Math",
            "observers": [
                "Rect"
            ],
            "visType": 1,
            "position": {
                "x": 1100,
                "y": 530
            },
            "geometry": {},
            "canvasPattern": {
                "direction": "y"
            }
        },
        {
            "group": "Math",
            "observers": [
                "Rect"
            ],
            "visType": 2,
            "position": {
                "x": 1100,
                "y": 630
            },
            "geometry": {
                "width": 100,
                "height": 50
            },
            "canvasPattern": {
                "direction": "y"
            }
        },
        {
            "group": "Math",
            "observers": [
                "Rect"
            ],
            "visType": 7,
            "position": {
                "x": 1380,
                "y": 530
            },
            "geometry": {
                "width": 170,
                "height": 180
            },
            "canvasPattern": {
                "direction": "y"
            }
        },
        {
            "group": "Math",
            "observers": [
                "Rect"
            ],
            "visType": 4,
            "position": {
                "x": 1200,
                "y": 530
            },
            "geometry": {
                "width": 170,
                "height": 180
            },
            "canvasPattern": {
                "direction": "y"
            }
        },
        {
            "group": "Math",
            "observers": [
                "Rect"
            ],
            "visType": 5,
            "position": {
                "x": 1260,
                "y": 10
            },
            "geometry": {
                "width": 300,
                "height": 410
            },
            "canvasPattern": {
                "label": "DEMO"
            }
        },
        {
            "group": "Math",
            "observers": [
                "Triangle"
            ],
            "visType": 3,
            "position": {
                "x": 20,
                "y": 896.4
            },
            "geometry": {
                "width": 580,
                "height": 440
            },
            "canvasPattern": {
                "label": [
                    "Triangle"
                ]
            }
        },
        {
            "group": "Math",
            "observers": [
                "Triangle"
            ],
            "visType": 0,
            "position": {
                "x": 610,
                "y": 896.4
            },
            "geometry": {
                "width": 290,
                "height": 70
            },
            "canvasPattern": {
                "direction": "y"
            }
        },
        {
            "group": "Math",
            "observers": [
                "Triangle"
            ],
            "visType": 7,
            "position": {
                "x": 610,
                "y": 976.4
            },
            "geometry": {},
            "canvasPattern": {
                "direction": "y"
            }
        },
        {
            "group": "Math",
            "observers": [
                "Triangle"
            ],
            "visType": 6,
            "position": {
                "x": 610,
                "y": 1136.4
            },
            "geometry": {
                "width": 190,
                "height": 200
            },
            "canvasPattern": {
                "direction": "y"
            }
        }
    ],
    "elements": [
        {
            "visType": 1,
            "canvasPattern": {
                "points": {
                    "lt": {
                        "x": 10,
                        "y": 10,
                        "id": "lt"
                    },
                    "rt": {
                        "id": "rt",
                        "x": 1250,
                        "y": 10
                    },
                    "lb": {
                        "id": "lb",
                        "x": 10,
                        "y": 420
                    },
                    "rb": {
                        "id": "rb",
                        "x": 1250,
                        "y": 420
                    }
                }
            }
        },
        {
            "visType": 1,
            "canvasPattern": {
                "points": {
                    "lt": {
                        "x": 10,
                        "y": 430,
                        "id": "lt"
                    },
                    "rt": {
                        "id": "rt",
                        "x": 700,
                        "y": 430
                    },
                    "lb": {
                        "id": "lb",
                        "x": 10,
                        "y": 868.2
                    },
                    "rb": {
                        "id": "rb",
                        "x": 700,
                        "y": 868.2
                    }
                }
            }
        },
        {
            "visType": 1,
            "canvasPattern": {
                "points": {
                    "lt": {
                        "x": 710,
                        "y": 430,
                        "id": "lt"
                    },
                    "rt": {
                        "id": "rt",
                        "x": 1560,
                        "y": 430
                    },
                    "lb": {
                        "id": "lb",
                        "x": 710,
                        "y": 870
                    },
                    "rb": {
                        "id": "rb",
                        "x": 1560,
                        "y": 870
                    }
                }
            }
        },
        {
            "visType": 1,
            "canvasPattern": {
                "points": {
                    "lt": {
                        "x": 1260,
                        "y": 10,
                        "id": "lt"
                    },
                    "rt": {
                        "id": "rt",
                        "x": 1560,
                        "y": 10
                    },
                    "lb": {
                        "id": "lb",
                        "x": 1260,
                        "y": 420
                    },
                    "rb": {
                        "id": "rb",
                        "x": 1560,
                        "y": 420
                    }
                }
            }
        },
        {
            "visType": 0,
            "canvasPattern": {
                "points": [
                    {
                        "x": 1110,
                        "y": 720,
                        "id": 0
                    },
                    {
                        "x": 1170,
                        "y": 850,
                        "id": 1
                    },
                    {
                        "x": 1200,
                        "y": 740,
                        "id": 2
                    },
                    {
                        "x": 1260,
                        "y": 850,
                        "id": 3
                    },
                    {
                        "x": 1290,
                        "y": 760,
                        "id": 4
                    },
                    {
                        "x": 1350,
                        "y": 850,
                        "id": 5
                    },
                    {
                        "x": 1370,
                        "y": 780,
                        "id": 6
                    },
                    {
                        "x": 1420,
                        "y": 850,
                        "id": 7
                    },
                    {
                        "x": 1440,
                        "y": 800,
                        "id": 8
                    },
                    {
                        "x": 1520,
                        "y": 850,
                        "id": 9
                    }
                ]
            }
        },
        {
            "visType": 1,
            "canvasPattern": {
                "points": {
                    "lt": {
                        "x": 10,
                        "y": 876.4,
                        "id": "lt"
                    },
                    "rt": {
                        "id": "rt",
                        "x": 910,
                        "y": 876.4
                    },
                    "lb": {
                        "id": "lb",
                        "x": 10,
                        "y": 1346.4
                    },
                    "rb": {
                        "id": "rb",
                        "x": 910,
                        "y": 1346.4
                    }
                }
            }
        }
    ]
}